<svg xmlns="http://www.w3.org/2000/svg" width="57.535" height="70.282" viewBox="0 0 57.535 70.282">
  <path id="Subtração_11" data-name="Subtração 11" d="M28.768,70.282a2.339,2.339,0,0,1-1.666-.69L.7,43.165a2.357,2.357,0,0,1,1.665-4.024H6.5V0H51.035V39.141h4.139a2.357,2.357,0,0,1,1.666,4.024L30.433,69.592A2.339,2.339,0,0,1,28.768,70.282Zm10.8-39.409A6.734,6.734,0,1,0,46.3,37.607,6.739,6.739,0,0,0,39.569,30.873ZM34.544,15.43a2.088,2.088,0,0,0-1.892,1.186L21.082,40.458a2.105,2.105,0,0,0,1.89,3.024A2.118,2.118,0,0,0,24.865,42.3l11.57-23.843a2.1,2.1,0,0,0-1.891-3.024Zm-16.6-.858a6.734,6.734,0,1,0,6.729,6.734A6.739,6.739,0,0,0,17.948,14.571ZM39.569,40.132a2.525,2.525,0,1,1,2.523-2.525A2.527,2.527,0,0,1,39.569,40.132ZM17.948,23.83a2.525,2.525,0,1,1,2.523-2.525A2.527,2.527,0,0,1,17.948,23.83Z" transform="translate(0)" fill="#20211f"/>
</svg>
